{
  "value": "quattroCeilingAir",
  "title": "Квадро, подвесная в потолок",
  "logo": "/futurum/img/quattro.png",
  "calculation": {
    "handleW": 40,
    "bufferStripW": 8,
    "deltaDoorH": 70,
    "deltaDoorW": 76,
    "deltaDspH": 67,
    "deltaDspW": 62,
    "deltaGlassH": 69,
    "deltaGlassW": 64,
    "deltaDspMiddle": 8,
    "deltaGlassMiddle": 10
  },
  "price": {
    "buildSlices": 300,
    "buildRegular": 400,
    "buildRegularDsp": 500,
    "buildDeltaForMiddle": 100,
    "doorCloser": 0,
    "doorPackage": 100,
    "bufferStrip": 22,
    "sealerStrip": 35,
    "dusterStrip": 40,
    "rollersRegular": 1800,
    "rollersReinforced": 3550,
    "rollersPlate": 0,
    "stopperPlastic": 0,
    "stopperMetal": 0
  },
  "colors": [
    {
      "values": ["silver"],
      "price": {
        "handleRegular": 0,
        "handleLong": 2800,
        "handleLongMore": 2900,
        "maxLengthHandleRegular": 4720,
        "maxLengthHandleLong": 5320,
        "horizonsAndRails": 2400,
        "middle": 220
      }
    },
    {
      "values": ["wengeMatte"],
      "price": {
        "handleRegular": 0,
        "handleLong": 3150,
        "handleLongMore": 3250,
        "maxLengthHandleRegular": 4720,
        "maxLengthHandleLong": 5320,
        "horizonsAndRails": 2600,
        "middle": 260
      }
    }
  ]
}
